{
    "antifeatures": {
        "Ads": "Cette appli contient des publicités",
        "DisabledAlgorithm": "La signature de sécurité de cette application est faible",
        "KnownVuln": "Cette application contient une vulnérabilité de sécurité connue",
        "NoSourceSince": "Le code source n\\'est désormais plus en accès libre, les mises à jour ne sont plus proposées.",
        "NonFreeAdd": "Cette appli promeut des extensions qui ne sont pas libres/open source",
        "NonFreeAssets": "Cette appli comprend des parties qui ne sont pas libres/open-source",
        "NonFreeDep": "Cette appli dépend d\\'autres applis qui ne sont pas libres/open source",
        "NonFreeNet": "Cette appli promeut des services réseaux qui ne sont pas libres/open source",
        "Tracking": "Cette appli suit et transmet votre activité",
        "UpstreamNonFree": "Le code source amont n\\'est pas entièrement libre/open source"
    },
    "index": {
        "download_fdroid": "TÉLÉCHARGEZ F-DROID",
        "gpg_signature": "Signature PGP",
        "introduction": "F-Droid est un catalogue de logiciels libres et Open Source pour la plateforme Android. Le client F-droid facilite la découverte, l'installation et la mise à jour d'applications sur votre appareil Android.",
        "screenshot": "Capture d'écran de l'application Android F-Droid",
        "title": "Qu’est-ce que F-Droid ?"
    },
    "navigation": {
        "about": "À Propos",
        "browse": "Explorer",
        "contribute": "Contribuer",
        "documentation": "Docs",
        "forum": "Forum",
        "issues": "Problèmes",
        "news": "Actualités"
    },
    "package": {
        "anti_features": "Anti-fonctionnalités",
        "anti_features_warning": "Cette application possède des fonctionnalités qui pourraient vous déplaire.",
        "author": "Auteur",
        "build_metadata": "Métadonnées de compilation",
        "changelog": "Journal des modifications",
        "donate": "Faire un don",
        "download": "Télécharger l'[file_extension]",
        "flattr": "Flattr",
        "gpg_signature": "Signature PGP",
        "issue_tracker": "Suivi des tickets",
        "liberapay": "Liberapay",
        "license": "Licence",
        "minimum_android_version": "Cette version nécessite Android [android_version] ou ultérieur.",
        "new_in_version": "Nouveauté de la version [latest_version]",
        "packages": "Paquets",
        "permissions": "Permissions",
        "signed_by_developer": "Compilé et signé par le développeur original.",
        "signed_by_fdroid": "Elle est construite et signée par F-Droid, et garantie comme correspondante à <a href=\"[source_code_url]\">cette archive source</a>.",
        "source_code": "Code source",
        "suggest_downloading_via_fdroid": "Vous pouvez installer l'application en téléchargeant l'un des fichiers APK ci-dessous. Sachez que dans ce cas, vous ne serez pas notifiés lorsque des mises à jour de l'application seront disponibles. Vous pouvez aussi installer cette application en utilisant le client F-Droid.",
        "technical_info": "Informations techniques",
        "translation": "Traduction",
        "version_info": "<b>Version [package_version]</b> ([package_version_code]) - Ajoutée le [package_added_date]",
        "website": "Site web"
    },
    "permissions": {
        "permdesc_acceptHandovers": "Autorise l'application à continuer un appel qui a été démarré dans une autre application.",
        "permdesc_accessCoarseLocation": "Cette application peut obtenir votre position via des sources de réseau telles que les antennes-relais et les réseaux Wi-Fi. Ces services de localisation doivent être activés et disponibles sur votre téléphone pour que l'application puisse les utiliser.",
        "permdesc_accessDrmCertificates": "Permet à une application de fournir et d'utiliser des certificats DRM. Ne devrait jamais être nécessaire pour les applications standards.",
        "permdesc_accessFineLocation": "Cette application peut obtenir votre position via le GPS ou des sources de positionnement de réseau telles que les antennes-relais et les réseaux Wi-Fi. Ces services de localisation doivent être activés et disponibles sur votre téléphone pour que l'application puisse les utiliser. Ceci peut réduire l'autonomie de la batterie.",
        "permdesc_accessImsCallService": "Permet à l'application d'utiliser le service IMS pour passer des appels sans votre intervention.",
        "permdesc_accessLocationExtraCommands": "Permet à l'application d'accéder à des commandes de localisation supplémentaires offertes par le fournisseur. Elle est ainsi susceptible d'interférer avec le bon fonctionnement du GPS ou de toute autre source de localisation.",
        "permdesc_accessNetworkConditions": "Permet à une application de détecter des observations sur les conditions du réseau. Les applications standards ne devraient pas nécessiter cette autorisation.",
        "permdesc_accessNetworkState": "Permet à l'application d'accéder à des informations sur les connexions réseau, comme les réseaux existants et connectés.",
        "permdesc_accessNotifications": "Permet aux applications de récupérer, d'examiner et d'autoriser les notifications, y compris celles envoyées par d'autres applications.",
        "permdesc_accessWifiState": "Permet à l'application d'accéder à des informations sur les réseaux Wi-Fi afin de savoir si une connexion Wi-Fi est activée et pour connaître le nom des appareils connectés au Wi-Fi, par exemple.",
        "permdesc_accessWimaxState": "Permet à l'application de déterminer si le WiMAX est activé et d'obtenir des informations sur tous les réseaux WiMAX connectés.",
        "permdesc_access_notification_policy": "Permet à l'application de consulter et de modifier la configuration du mode Ne pas déranger.",
        "permdesc_addVoicemail": "Permet à l'application d'ajouter des messages à votre messagerie vocale.",
        "permdesc_answerPhoneCalls": "Autorise l'application à répondre à un appel téléphonique entrant.",
        "permdesc_bindCarrierMessagingService": "Permettre à l'application de s'associer à l'interface de niveau supérieur du service SMS/MMS d'un opérateur. Ne devrait jamais être nécessaire pour les applications standards.",
        "permdesc_bindCarrierServices": "Permet à l'application autorisée de s'associer aux services d'un opérateur. Ne devrait pas être nécessaire pour les applications standards.",
        "permdesc_bindConditionProviderService": "Permet à l'application de s'associer à l'interface de niveau supérieur d'un service de fournisseur de conditions. Ne devrait pas être nécessaire pour les applications standards.",
        "permdesc_bindDreamService": "Permet à l'application autorisée de s'associer à l'interface de plus haut niveau d'un service d'écran de veille interactif. Cette autorisation ne devrait jamais être nécessaire pour les applications standards.",
        "permdesc_bindNotificationListenerService": "Permet à l'application de s'associer à l'interface de niveau supérieur d'un service d'écoute des notifications. Ne devrait jamais être nécessaire pour les applications normales.",
        "permdesc_bind_connection_service": "Permet à l'application d'interagir avec des services de téléphonie pour effectuer et recevoir des appels.",
        "permdesc_bind_incall_service": "Permet à l'application de contrôler quand et comment l'écran d'appel s'affiche.",
        "permdesc_bluetooth": "Permet à l'application d'accéder à la configuration du Bluetooth sur le téléphone, et d'établir et accepter des connexions avec les appareils associés.",
        "permdesc_bluetoothAdmin": "Permet à l'application de configurer le téléphone Bluetooth local, d'identifier des appareils distants et de les associer au téléphone.",
        "permdesc_bodySensors": "Permet à l'application d'accéder aux données des capteurs qui contrôlent votre condition physique, comme votre rythme cardiaque.",
        "permdesc_broadcastSticky": "Permet à l'application d'envoyer des intentions de diffusion \\\"persistantes\\\", qui perdurent une fois la diffusion terminée. Une utilisation excessive peut ralentir le téléphone ou le rendre instable en l'obligeant à utiliser trop de mémoire.",
        "permdesc_callPhone": "Permet à l'application d'appeler des numéros de téléphone sans votre intervention. Cette autorisation peut entraîner des frais ou des appels imprévus et ne permet pas à l'application d'appeler des numéros d'urgence. Les applications malveillantes peuvent générer des frais en passant des appels sans votre consentement.",
        "permdesc_camera": "Cette application peut utiliser l'appareil photo pour prendre des photos et enregistrer des vidéos à tout moment.",
        "permdesc_changeNetworkState": "Permet à l'application de modifier l'état de la connectivité du réseau.",
        "permdesc_changeTetherState": "Permet à l'application de modifier l'état de la connectivité du partage de connexion.",
        "permdesc_changeWifiMulticastState": "Permet à l'application de recevoir des paquets envoyés à tous les appareils (et pas seulement à votre téléphone) d'un réseau Wi-Fi qui utilise des adresses de multidiffusion. Cette autorisation entraîne une consommation d'énergie supérieure au mode de diffusion simple.",
        "permdesc_changeWifiState": "Permet à l'application de se connecter à des points d'accès Wi-Fi, de s'en déconnecter et de modifier la configuration de l'appareil pour les réseaux Wi-Fi.",
        "permdesc_changeWimaxState": "Permet à l'application de connecter le téléphone aux réseaux WiMAX et de l'en déconnecter.",
        "permdesc_connection_manager": "Permettre à l'application de gérer les connexions de télécommunication",
        "permdesc_control_incall_experience": "Permet à l'application de fournir une expérience utilisateur pendant l'appel.",
        "permdesc_createNetworkSockets": "Permet à l'application de créer des sockets réseau et d'utiliser des protocoles réseau personnalisés. Le navigateur et d'autres applications permettent d'envoyer des données sur Internet. Cette autorisation n'est donc pas nécessaire pour envoyer des données sur Internet.",
        "permdesc_disableKeyguard": "Permet à l'application de désactiver le verrouillage des touches et toute mesure de sécurité via mot de passe associée. Par exemple, votre téléphone désactive le verrouillage des touches lorsque vous recevez un appel, puis le réactive lorsque vous raccrochez.",
        "permdesc_enableCarMode": "Permet à l'application d'activer le mode Voiture.",
        "permdesc_expandStatusBar": "Permet à l'application de réduire ou de développer la barre d'état.",
        "permdesc_foregroundService": "Autorise l'application à utiliser des services de premier plan.",
        "permdesc_getAccounts": "Permet à l'application d'obtenir la liste des comptes connus par le téléphone. Il peut s'agir de n'importe quel compte créé par les applications que vous avez installées.",
        "permdesc_getPackageSize": "Permet à l'application de récupérer son code, ses données et la taille de sa mémoire cache.",
        "permdesc_getTasks": "Permet à l'application de récupérer des informations sur des tâches en cours d'exécution et récemment exécutées. L'application est ainsi susceptible d'obtenir des informations sur les applications utilisées sur l'appareil.",
        "permdesc_handoverStatus": "Autoriser cette application à recevoir des informations sur les transferts Android Beam en cours",
        "permdesc_install_shortcut": "Permettre à une application d'ajouter des raccourcis à l'écran d'accueil sans l'intervention de l'utilisateur",
        "permdesc_invokeCarrierSetup": "Permet à l'application autorisée de faire appel à l'application de configuration fournie par l'opérateur. Cette fonctionnalité ne devrait pas être nécessaire pour les applications standards.",
        "permdesc_killBackgroundProcesses": "Permet à l'application de mettre fin aux processus d'autres applications exécutés en arrière-plan. Cette autorisation peut interrompre l'exécution d'autres applications.",
        "permdesc_manageFingerprint": "Autoriser l'application à invoquer des méthodes pour ajouter et supprimer des modèles d'empreintes digitales",
        "permdesc_manageNetworkPolicy": "Permet à l'application de gérer les stratégies du réseau et de définir celles qui sont spécifiques à l'application.",
        "permdesc_manageOwnCalls": "Autorise l'application à acheminer les appels via le système afin d'optimiser le confort d'utilisation.",
        "permdesc_manageProfileAndDeviceOwners": "Autoriser les applications à définir les propriétaires des profils et celui de l'appareil",
        "permdesc_modifyAudioSettings": "Permet à l'application de modifier les paramètres audio généraux, tels que le volume et la sortie audio utilisée.",
        "permdesc_modifyNetworkAccounting": "Permet à l'application de modifier l'utilisation du réseau par les autres applications. Les applications standards ne doivent pas utiliser cette fonctionnalité.",
        "permdesc_nfc": "Permet à l'application de communiquer avec des tags, des cartes et des lecteurs compatibles avec la technologie NFC (communication en champ proche).",
        "permdesc_persistentActivity": "Permet à l'application de rendre certains de ces composants persistants dans la mémoire. Cette autorisation peut limiter la mémoire disponible pour d'autres applications et ralentir le téléphone.",
        "permdesc_processOutgoingCalls": "Permettre à l'application de lire le numéro composé lors d'un appel sortant, et lui donner la possibilité de rediriger l'appel vers un autre numéro ou d'abandonner l'appel",
        "permdesc_readCalendar": "Cette application peut lire tous les événements d'agenda enregistrés sur votre téléphone et partager ou enregistrer vos données d'agenda.",
        "permdesc_readCallLog": "Cette application peut lire l'historique de vos appels.",
        "permdesc_readCellBroadcasts": "Permet à l'application de lire les messages que votre appareil reçoit via un canal de diffusion cellulaire. Dans certaines zones géographiques, des alertes vous sont envoyées afin de vous prévenir en cas de situation d'urgence. Les applications malveillantes peuvent venir perturber les performances ou le fonctionnement de votre appareil lorsqu'un message est reçu via un canal de diffusion cellulaire.",
        "permdesc_readContacts": "Permet à l'application de lire les données relatives aux contacts stockés sur votre téléphone, y compris la fréquence à laquelle vous avez appelé des personnes spécifiques, leur avez envoyé des e-mails ou avez communiqué avec elles par d'autres moyens. Cette autorisation permet aux applications d'enregistrer ces données. Les applications malveillantes peuvent les partager à votre insu.",
        "permdesc_readHistoryBookmarks": "Permet à l'application d'accéder à l'historique de toutes les URL auxquelles le navigateur a accédé, ainsi qu'à l'ensemble des favoris du navigateur. Remarque : il est possible que cette autorisation ne soit pas appliquée par les navigateurs tiers ni par d'autres applications permettant de naviguer sur le Web.",
        "permdesc_readInstallSessions": "Permet à une application d'accéder aux sessions d'installation. Cela lui permet de consulter les détails relatifs à l'installation des packages actifs.",
        "permdesc_readNetworkUsageHistory": "Permet à l'application de lire l'historique d'utilisation de réseaux et d'applications spécifiques.",
        "permdesc_readPhoneNumbers": "Permet à l'application d'accéder aux numéros de téléphone de l'appareil.",
        "permdesc_readPhoneState": "Permet à l'application d'accéder aux fonctionnalités téléphoniques de l'appareil. Cette autorisation permet à l'application de déterminer le numéro de téléphone et les identifiants de l'appareil, si un appel est actif et le numéro distant connecté par un appel.",
        "permdesc_readSms": "Cette application peut lire tous les SMS enregistrés sur votre téléphone.",
        "permdesc_readSyncSettings": "Permet à l'application d'accéder aux paramètres de synchronisation d'un compte. Par exemple, cette autorisation peut permettre de déterminer si l'application Contacts est synchronisée avec un compte ou non.",
        "permdesc_readSyncStats": "Permet à une application d'accéder aux statistiques de synchronisation d'un compte, y compris l'historique des événements de synchronisation et le volume de données synchronisées.",
        "permdesc_receiveBootCompleted": "Permet à l'application de se lancer une fois le démarrage du système terminé. Elle peut rallonger le temps de démarrage du téléphone et ralentir son fonctionnement global en raison de son exécution continue.",
        "permdesc_receiveMms": "Permet à l'application de recevoir et de traiter les MMS. Cette autorisation lui donne la possibilité de surveiller ou supprimer les messages envoyés à votre appareil sans vous les montrer.",
        "permdesc_receiveSms": "Permet à l'application de recevoir et de traiter les SMS. Cette autorisation lui donne la possibilité de surveiller ou supprimer les messages envoyés à votre appareil sans vous les montrer.",
        "permdesc_receiveWapPush": "Permet à l'application de recevoir et de traiter les messages WAP. Cette autorisation lui donne la possibilité de surveiller ou supprimer les messages envoyés à votre appareil sans vous les montrer.",
        "permdesc_recordAudio": "Cette application peut utiliser le micro pour enregistrer du contenu audio à tout moment.",
        "permdesc_register_call_provider": "Permettre à l'application d'enregistrer de nouvelles connexions de télécommunication",
        "permdesc_register_sim_subscription": "Permettre à l'application d'enregistrer de nouvelles connexions SIM de télécommunication",
        "permdesc_removeDrmCertificates": "Permet à une application de supprimer les certificats DRM. Ne devrait jamais être nécessaire pour les applications standards.",
        "permdesc_reorderTasks": "Permet à l'application de déplacer les tâches au premier plan et en arrière-plan. L'application peut procéder à ces opérations sans votre intervention.",
        "permdesc_requestDeletePackages": "Permet à une application de demander la suppression de packages.",
        "permdesc_requestIgnoreBatteryOptimizations": "Autorise une application à demander l'autorisation d'ignorer les optimisations de batterie pour cette application.",
        "permdesc_requestInstallPackages": "Permet à une application de demander l'installation de packages.",
        "permdesc_route_media_output": "Permet à une application de diriger la sortie multimédia vers d'autres appareils externes.",
        "permdesc_runInBackground": "Cette application peut s'exécuter en arrière-plan, ce qui risque d'épuiser la batterie plus rapidement.",
        "permdesc_sdcardRead": "Permettre à l'application de lire le contenu de la carte SD",
        "permdesc_sdcardWrite": "Permet à l'application de modifier le contenu de la carte SD.",
        "permdesc_sendSms": "Permet à l'application d'envoyer des messages SMS. Cette autorisation peut entraîner des frais inattendus. Les applications malveillantes peuvent générer des frais en envoyant des messages sans votre consentement.",
        "permdesc_setAlarm": "Permet à l'application de régler la sonnerie d'un réveil installé. Cette fonctionnalité n'est pas disponible sur tous les réveils.",
        "permdesc_setInputCalibration": "Permettre à l'application de modifier les paramètres de calibrage de l'écran tactile. Ne devrait jamais être nécessaire pour les applications standards.",
        "permdesc_setTimeZone": "Permet à l'application de modifier le fuseau horaire du téléphone.",
        "permdesc_setWallpaper": "Permet à l'application de définir le fond d'écran du système.",
        "permdesc_setWallpaperHints": "Permet à l'application de définir les bulles d'aide concernant la taille du fond d'écran du système.",
        "permdesc_sim_communication": "Autoriser l'envoi de commandes à la carte SIM via l'application. Cette fonctionnalité est très risquée.",
        "permdesc_statusBar": "Permet à l'application de désactiver la barre d'état, ou d'ajouter et de supprimer des icônes système.",
        "permdesc_statusBarService": "Permet à l'application de faire office de barre d'état.",
        "permdesc_subscribedFeedsRead": "Permet à l'application d'obtenir des informations sur les flux en cours de synchronisation.",
        "permdesc_systemAlertWindow": "Cette application peut se superposer à d'autres applications ou à d'autres parties de l'écran. Cela peut altérer l'utilisation normale des applications et modifier l'apparence des autres applications.",
        "permdesc_transmitIr": "Permet à l'application d'utiliser l'émetteur infrarouge du téléphone.",
        "permdesc_uninstall_shortcut": "Permettre à l'application de supprimer des raccourcis de l'écran d'accueil sans l'intervention de l'utilisateur",
        "permdesc_useBiometric": "Autoriser l'application à utiliser les composants biométriques pour l'authentification",
        "permdesc_useDataInBackground": "Cette application peut utiliser des données en arrière-plan, ce qui risque d'augmenter la consommation des données.",
        "permdesc_useFingerprint": "Autoriser l'application à utiliser le matériel d'empreintes digitales pour l'authentification",
        "permdesc_use_sip": "Autorise l'application à effectuer et à recevoir des appels SIP.",
        "permdesc_vibrate": "Permet à l'application de contrôler le vibreur.",
        "permdesc_wakeLock": "Permet à l'application d'empêcher le téléphone de passer en mode veille.",
        "permdesc_writeCalendar": "Cette application peut ajouter, supprimer ou modifier les événements d'agenda enregistrés sur votre téléphone. Elle peut en outre envoyer des messages qui semblent provenir du propriétaire de l'agenda, ou modifier des événements sans en informer leur propriétaire.",
        "permdesc_writeCallLog": "Permet à l'application de lire le journal d'appels de votre téléphone, y compris les données relatives aux appels entrants et sortants. Des applications malveillantes peuvent utiliser cette fonctionnalité pour effacer ou modifier votre journal d'appels.",
        "permdesc_writeContacts": "Permet à l'application de modifier les données relatives aux contacts stockés sur votre téléphone, y compris la fréquence à laquelle vous avez appelé des personnes spécifiques, leur avez envoyé des e-mails ou avez communiqué avec elles par d'autres moyens. Cette autorisation permet aux applications de supprimer ces données.",
        "permdesc_writeGeolocationPermissions": "Permet à l'application de modifier les autorisations de géolocalisation du navigateur. Des applications malveillantes peuvent exploiter cette fonctionnalité pour permettre l'envoi de données de localisation à des sites Web arbitraires.",
        "permdesc_writeHistoryBookmarks": "Permet à l'application de modifier l'historique du navigateur ou les favoris enregistrés sur votre téléphone. Cette autorisation peut lui permettre d'effacer ou de modifier les données du navigateur. Remarque : il est possible que cette autorisation ne soit pas appliquée par les navigateurs tiers ni par d'autres applications permettant de naviguer sur le Web.",
        "permdesc_writeSettings": "Permet à l'application de modifier les paramètres du système. Des applications malveillantes peuvent exploiter cette fonctionnalité pour corrompre la configuration de votre système.",
        "permdesc_writeSyncSettings": "Permet à une application de modifier les paramètres de synchronisation d'un compte. Cette autorisation peut, par exemple, être utilisée pour activer la synchronisation de l'application Contacts avec un compte.",
        "permgroupdesc_calendar": "accéder à votre agenda",
        "permgroupdesc_calllog": "Lire et écrire les journaux d'appels du téléphone",
        "permgroupdesc_camera": "prendre des photos et enregistrer des vidéos",
        "permgroupdesc_contacts": "accéder à vos contacts",
        "permgroupdesc_location": "accéder à la position de l'appareil",
        "permgroupdesc_microphone": "enregistrer des fichiers audio",
        "permgroupdesc_phone": "effectuer et gérer des appels téléphoniques",
        "permgroupdesc_sensors": "accéder aux données des capteurs relatives à vos signes vitaux",
        "permgroupdesc_sms": "envoyer et consulter des SMS",
        "permgroupdesc_storage": "accéder aux photos, contenus multimédias et fichiers sur votre appareil",
        "permgrouplab_calendar": "Agenda",
        "permgrouplab_calllog": "Journaux d'appels",
        "permgrouplab_camera": "Appareil photo",
        "permgrouplab_contacts": "Contacts",
        "permgrouplab_location": "Localisation",
        "permgrouplab_microphone": "Microphone",
        "permgrouplab_phone": "Téléphone",
        "permgrouplab_sensors": "Capteurs corporels",
        "permgrouplab_sms": "SMS",
        "permgrouplab_storage": "Stockage",
        "permgrouprequest_calendar": "Permettre à <b>",
        "permgrouprequest_calllog": "Permettre à <b>",
        "permgrouprequest_camera": "Permettre à <b>",
        "permgrouprequest_contacts": "Permettre à <b>",
        "permgrouprequest_location": "Permettre à <b>",
        "permgrouprequest_microphone": "Permettre à <b>",
        "permgrouprequest_phone": "Permettre à <b>",
        "permgrouprequest_sensors": "Permettre à <b>",
        "permgrouprequest_sms": "Permettre à <b>",
        "permgrouprequest_storage": "Autoriser <b>",
        "permlab_acceptHandover": "continuer un appel issu d'une autre application",
        "permlab_accessCoarseLocation": "accéder à votre position approximative (selon le réseau)",
        "permlab_accessDrmCertificates": "accéder aux certificats DRM",
        "permlab_accessFineLocation": "accéder à votre position précise (GPS et réseau)",
        "permlab_accessImsCallService": "accéder au service d'appel IMS",
        "permlab_accessLocationExtraCommands": "Accès aux commandes de fournisseur de position géographique supplémentaires",
        "permlab_accessNetworkConditions": "détecter des observations sur les conditions du réseau",
        "permlab_accessNetworkState": "afficher les connexions réseau",
        "permlab_accessNotifications": "accéder aux notifications",
        "permlab_accessWifiState": "afficher les connexions Wi-Fi",
        "permlab_accessWimaxState": "se connecter au réseau WiMAX et s'en déconnecter",
        "permlab_access_notification_policy": "accéder au mode Ne pas déranger",
        "permlab_addVoicemail": "ajouter un message vocal",
        "permlab_answerPhoneCalls": "répondre aux appels téléphoniques",
        "permlab_bindCarrierMessagingService": "s'associer au service SMS/MMS d'un opérateur",
        "permlab_bindCarrierServices": "associer aux services de l'opérateur",
        "permlab_bindConditionProviderService": "s'associer à un service de fournisseur de conditions",
        "permlab_bindDreamService": "associer à un service d'écran de veille interactif",
        "permlab_bindNotificationListenerService": "s'associer à l'interface de niveau supérieur d'un service d'écoute des notifications",
        "permlab_bind_connection_service": "interagir avec des services de téléphonie",
        "permlab_bind_incall_service": "contrôler l'écran d'appel",
        "permlab_bluetooth": "Associer à appareils Bluetooth",
        "permlab_bluetoothAdmin": "Accéder aux paramètres Bluetooth",
        "permlab_bodySensors": "accéder capteurs corp. (ex : cardiofréquencemètres)",
        "permlab_broadcastSticky": "Envoi d'une diffusion persistante",
        "permlab_callPhone": "appeler directement les numéros de téléphone",
        "permlab_camera": "prendre des photos et enregistrer des vidéos",
        "permlab_changeNetworkState": "modifier la connectivité réseau",
        "permlab_changeTetherState": "changer la connectivité du partage de connexion",
        "permlab_changeWifiMulticastState": "autoriser la réception de données en Wi-Fi multidiffusion",
        "permlab_changeWifiState": "Activer/désactiver la connexion Wi-Fi",
        "permlab_changeWimaxState": "modifier l'état du WiMAX",
        "permlab_connection_manager": "gérer les connexions de télécommunication",
        "permlab_control_incall_experience": "fournir une expérience utilisateur pendant l'appel",
        "permlab_createNetworkSockets": "bénéficier d'un accès complet au réseau",
        "permlab_disableKeyguard": "Désactiver le verrouillage de l'écran",
        "permlab_enableCarMode": "activer le mode voiture",
        "permlab_expandStatusBar": "Agrandir/réduire la barre d'état",
        "permlab_foregroundService": "exécuter un service de premier plan",
        "permlab_getAccounts": "rechercher des comptes sur l'appareil",
        "permlab_getPackageSize": "évaluer l'espace de stockage de l'application",
        "permlab_getTasks": "récupérer les applications en cours d'exécution",
        "permlab_handoverStatus": "recevoir des informations sur l'état du transfert Android Beam",
        "permlab_install_shortcut": "Installer des raccourcis",
        "permlab_invokeCarrierSetup": "faire appel à l'application de configuration fournie par l'opérateur",
        "permlab_killBackgroundProcesses": "fermer les autres applications",
        "permlab_manageFingerprint": "Gérer le matériel d'empreintes digitales",
        "permlab_manageNetworkPolicy": "gérer les règles du réseau",
        "permlab_manageOwnCalls": "acheminer les appels via le système",
        "permlab_manageProfileAndDeviceOwners": "gérer les propriétaires des profils et de l'appareil",
        "permlab_modifyAudioSettings": "modifier vos paramètres audio",
        "permlab_modifyNetworkAccounting": "modifier le système de comptabilisation de l'utilisation du réseau",
        "permlab_nfc": "contrôler la communication en champ proche",
        "permlab_persistentActivity": "exécuter l'application en continu",
        "permlab_processOutgoingCalls": "transférer les appels sortants",
        "permlab_readCalendar": "Lire les événements d'agenda et les détails associés",
        "permlab_readCallLog": "lire le journal d'appels",
        "permlab_readCellBroadcasts": "lire les messages reçus via un canal de diffusion cellulaire",
        "permlab_readContacts": "Voir les contacts",
        "permlab_readHistoryBookmarks": "voir l'historique et les favoris Web",
        "permlab_readInstallSessions": "accéder aux sessions d'installation",
        "permlab_readNetworkUsageHistory": "lire l'historique d'utilisation du réseau",
        "permlab_readPhoneNumbers": "lire les numéros de téléphone",
        "permlab_readPhoneState": "Voir l'état et l'identité du téléphone",
        "permlab_readSms": "voir les messages texte (SMS ou MMS)",
        "permlab_readSyncSettings": "lire les paramètres de synchronisation",
        "permlab_readSyncStats": "Lecture des statistiques de synchronisation",
        "permlab_receiveBootCompleted": "s'exécuter au démarrage",
        "permlab_receiveMms": "recevoir des messages texte (MMS)",
        "permlab_receiveSms": "recevoir des messages texte (SMS)",
        "permlab_receiveWapPush": "recevoir des messages texte (WAP)",
        "permlab_recordAudio": "enregistrer des fichiers audio",
        "permlab_register_call_provider": "enregistrer de nouvelles connexions de télécommunication",
        "permlab_register_sim_subscription": "enregistrer de nouvelles connexions SIM de télécommunication",
        "permlab_removeDrmCertificates": "supprimer les certificats DRM",
        "permlab_reorderTasks": "réorganiser les applications en cours d'exécution",
        "permlab_requestDeletePackages": "demander la suppression de packages",
        "permlab_requestIgnoreBatteryOptimizations": "demander à ignorer les optimisations de batterie",
        "permlab_requestInstallPackages": "demander l'installation de packages",
        "permlab_route_media_output": "diriger la sortie multimédia",
        "permlab_runInBackground": "s'exécuter en arrière-plan",
        "permlab_sdcardRead": "voir le contenu de la carte SD",
        "permlab_sdcardWrite": "modifier ou supprimer le contenu de la carte SD",
        "permlab_sendSms": "envoyer et consulter des SMS",
        "permlab_setAlarm": "définir une alarme",
        "permlab_setInputCalibration": "modifier le calibrage du périphérique d'entrée",
        "permlab_setTimeZone": "Sélection du fuseau horaire",
        "permlab_setWallpaper": "configurer le fond d'écran",
        "permlab_setWallpaperHints": "modifier la taille du fond d'écran",
        "permlab_sim_communication": "envoyer des commandes à la carte SIM",
        "permlab_statusBar": "Désactivation ou modification de la barre d'état",
        "permlab_statusBarService": "remplacer la barre d'état",
        "permlab_subscribedFeedsRead": "lire les flux auxquels vous êtes abonné",
        "permlab_systemAlertWindow": "Cette application peut se superposer à d'autres applications",
        "permlab_transmitIr": "transmettre des signaux infrarouges",
        "permlab_uninstall_shortcut": "désinstaller des raccourcis",
        "permlab_useBiometric": "utiliser les composants biométriques",
        "permlab_useDataInBackground": "consommer des données en arrière-plan",
        "permlab_useFingerprint": "Utiliser le matériel d'empreintes digitales",
        "permlab_use_sip": "effectuer/recevoir des appels SIP",
        "permlab_vibrate": "contrôler le vibreur",
        "permlab_wakeLock": "empêcher le téléphone de passer en mode veille",
        "permlab_writeCalendar": "ajouter ou modifier des événements d'agenda et envoyer des e-mails aux invités à l'insu des propriétaires",
        "permlab_writeCallLog": "modifier le journal d'appels",
        "permlab_writeContacts": "modifier les contacts",
        "permlab_writeGeolocationPermissions": "modifier les autorisations de géolocalisation du navigateur",
        "permlab_writeHistoryBookmarks": "modifier l'historique et les favoris Web",
        "permlab_writeSettings": "modifier les paramètres du système",
        "permlab_writeSyncSettings": "activer/désactiver la synchronisation"
    },
    "sidebars": {
        "donate": {
            "bank_transfer_name": "Nom",
            "bitcoin_alt": "Bitcoin",
            "flattr_alt": "Flattr",
            "heading": "Faire un don",
            "hellotux": "👕 T-shirts 👕 de",
            "hellotux_alt": "HELLOTUX",
            "hellotux_donation": "F-Droid recevra 3€ par vêtement vendu.",
            "liberapay_alt": "Faire un don avec Liberapay",
            "litecoin_alt": "Faire un don en Litecoin",
            "paypal_alt": "Faire un don avec PayPal",
            "powered_by_donations": "F-Droid est alimenté par vos dons !",
            "via_bank_transfer": "Virement"
        },
        "lang": {
            "change": "Changer"
        },
        "last_updated": {
            "heading": "Dernières mises à jour"
        },
        "latest_packages": {
            "heading": "Dernières applications"
        },
        "news": {
            "heading": "Actualités"
        },
        "search": {
            "heading": "Trouver des applis",
            "noscript": "Nécessite que JavaScript soit activé",
            "search": "Rechercher"
        }
    }
}
